%YAML 1.1
%TAG !u! tag:unity3d.com,2011:
--- !u!78 &1
TagManager:
  serializedVersion: 2
  tags:
  - ObstacleReachesCollider
  - Obstacle
  - GoldCoin
  - CoinsPack
  - PlayerCollector
  - PetCollector
  layers:
  - Default
  - TransparentFX
  - Ignore Raycast
  - 
  - Water
  - UI
  - 
  - 
  - TeleportCollider
  - WallsCollliders
  - PlayerCollider
  - Obstacles
  - Coins
  - PetCollider
  - 
  - 
  - 
  - 
  - 
  - 
  - 
  - 
  - 
  - 
  - 
  - 
  - 
  - 
  - 
  - 
  - 
  - 
  m_SortingLayers:
  - name: Default
    uniqueID: 0
    locked: 0
